1 10 20
100 200 125
201 210 89
900 1000 174
125 50 119
1 1000 179
986 986 50
1 1 1
913 57 179
82 83 111
112 111 70
417 85 144
29239 66186 340
1532 507 182
291 107 128
903 563 179
9268 2380 262
790 709 153
683 952 179
5308 1869 238
163 72 122
229358 803440 509
832 504 171
287817 302434 389
795317 304001 509
408 165 144
9634 3673 262
9746 2674 262
639 390 142
26499 12471 282
7921 9057 252
972 5885 238
355 399 121
421 367 134
125 288 128
50280 27431 324
228 639 144
918 537 179
747 219 171
874 589 179
272 410 144
45699 63886 340
63 672 145
337 217 144
7956 3657 262
672 651 145
494 32 144
975 635 179
235 742 171
992 679 179
3811 4712 215
314 95 131
399875 213785 443
855 432 171
4842 1003 238
458 50 144
910 151 179
944482 906044 507
509 166 144
8246 4678 262
434 419 116
249354 876591 525
810673 632386 504
817 918 179
80491 80156 320
9197 6763 257
68 567 144
14 742 171
16147 19544 279
508 190 144
1753 6119 238
5214 7854 262
950 51 179
775 393 171
94260 36302 351
853 616 171
444 594 142
2104 6011 238
99 770 171
238 992 179
641 975 179
112 827 171
2490 209 209
25 752 171
208887 619501 470
8844 2332 262
10651 62515 340
69913 871886 525
700 955 179
22845 73770 340
5923 2208 238
39 642 144
888 658 179
833 372 171
414 394 134
241 465 144
121 415 144
227 843 171
888 474 179
65 277 128
580 886 179
52 916 179
317 621 144
2415 1004 183
9287 5150 262
146 609 144
87324 682355 509
3227 88044 351
1175 7887 262
3608 5257 238
3065 7982 262
585794 636553 509
889 788 179
32729 80367 351
846023 568608 525
806 361 171
527 207 144
506 600 137
621190 738444 509
468 611 142
675 602 145
51137 18750 324
536 785 171
539 825 171
2760 990 209
7537 1670 262
4 395 144
4463 4842 197
845 366 171
799 292 171
359 757 171
756136 503922 509
425 385 134
209904 304761 443
803 811 135
226 994 179
576 8635 262
959 16 179
655 790 171
735 813 153
614 148 144
101229 220995 386
510 813 171
307 249 123
875 132 179
6003 477 238
824 515 171
1012 88566 351
375 64 144
796 837 135
867 851 148
435604 274499 449
654 570 145
83 743 171
785 899 179
430 73 144
9362 3021 262
194 737 171
986 271 179
901781 963155 507
650 951 179
405 97 144
