.................
----------------------------------------------------------------------
Ran 17 tests in 0.600s

OK
Name             Stmts   Miss Branch BrPart  Cover   Missing
------------------------------------------------------------
Collatz.py          57      0     22      0   100%
TestCollatz.py      72      0      0      0   100%
------------------------------------------------------------
TOTAL              129      0     22      0   100%
