142 311 128
401 926 179
186 821 171
424 929 179
515 557 137
877 937 174
913 960 174
645 838 171
497 808 171
364 823 171
293 640 144
936 937 174
860 918 179
646 979 179
617 804 171
71 230 125
640 648 101
507 568 137
919 923 130
883 988 174
123 970 179
270 847 171
755 987 179
651 728 171
157 812 171
299 531 144
595 909 179
399 660 145
49 355 144
881 896 148
486 956 179
660 748 171
139 579 144
753 786 153
543 832 171
583 669 145
41 531 144
369 453 134
300 412 144
729 954 179
235 618 144
168 384 144
985 988 50
767 948 179
804 817 135
74 140 122
486 547 142
442 784 171
393 931 179
339 403 126
79 549 144
912 997 174
38 144 122
583 649 145
535 644 137
370 531 142
55 266 128
305 367 144
519 603 137
776 821 135
67 764 171
43 383 144
528 737 171
125 685 145
423 607 142
126 340 144
173 507 144
327 688 145
125 308 128
259 434 144
520 679 145
487 631 142
659 748 171
789 844 135
675 895 179
807 885 179
623 758 171
926 928 130
902 938 174
411 442 134
478 905 179
142 844 171
580 665 145
752 795 153
212 926 179
654 773 171
272 660 145
245 281 123
618 917 179
213 315 131
588 591 119
738 945 179
795 801 122
8 366 144
589 750 171
373 874 179
34 397 144
667 958 179
457 735 171
791 979 179
