................
----------------------------------------------------------------------
Ran 16 tests in 0.005s
OK
Name             Stmts   Miss Branch BrPart  Cover   Missing
------------------------------------------------------------
Collatz.py          49      0     16      0   100%
TestCollatz.py      74      0      0      0   100%
------------------------------------------------------------
TOTAL              123      0     16      0   100%