................
----------------------------------------------------------------------
Ran 16 tests in 0.007s

OK
Name             Stmts   Miss Branch BrPart  Cover   Missing
------------------------------------------------------------
Collatz.py          29      0     12      0   100%
TestCollatz.py      69      0      0      0   100%
------------------------------------------------------------
TOTAL               98      0     12      0   100%
