1 10 20
100 200 125
201 210 89
900 1000 174
1 1 1
999999 999999 259
34293 34360 236
37999 37957 187
12518 12469 201
23186 23215 207
86401 86490 271
69228 69270 250
59409 59411 136
466 525 142
26437 26480 277
13577 13569 90
36759 36850 187
63628 63705 255
39741 39720 169
46046 45947 239
24405 24340 189
20687 20671 150
70349 70421 250
8319 8258 203
67090 67173 268
74962 75004 201
68675 68623 237
46155 46057 252
47922 47859 221
80748 80771 214
35624 35663 324
78172 78226 170
19649 19729 212
69533 69572 299
55833 55738 260
53211 53181 216
22302 22224 238
43586 43638 164
65726 65752 224
21418 21344 256
51066 51113 265
63087 63134 317
54708 54786 216
18219 18202 248
66356 66304 193
42224 42282 288
70857 70852 113
29593 29648 210
4602 4656 184
2757 2760 160
53126 53028 172
73188 73234 201
56334 56416 229
36397 36314 249
2938 2961 173
2593 2524 178
80456 80451 214
45548 45570 239
82254 82175 214
55253 55261 185
51326 51383 309
53555 53550 141
88452 88543 271
46238 46258 164
25448 25421 109
26130 26193 171
73262 73220 219
89886 89864 240
69147 69157 175
14357 14348 121
34386 34314 205
41718 41656 257
69638 69716 281
12482 12451 201
14953 14920 134
19994 19984 181
64639 64657 193
87480 87538 240
49920 50007 203
67558 67491 193
17833 17786 186
15928 15960 147
61627 61682 211
63534 63598 255
22109 22162 194
4712 4766 197
25901 25844 233
34224 34322 311
25404 25314 246
49965 50044 234
94685 94646 315
16384 16288 191
24132 24194 189
7029 6985 195
79958 79985 245
282413 282486 252
696205 696284 292
388284 388368 299
821861 821809 176
407337 407286 237
553994 553978 240
927775 927798 202
281177 281152 252
259182 259121 195
